<perl>

<bind-gettext-domain domain="distrib" />

# list of architectures
# This get sorted in &releasname;/release.data file.
# After this is changed, the cache of it in reportbug needs to be updated:
# https://salsa.debian.org/reportbug-team/reportbug/-/blob/master/cache/README
%arches = (
	alpha		=> '<gettext domain="distrib">Alpha</gettext>',
	amd64		=> '<gettext domain="distrib">64-bit PC (amd64)</gettext>',
	arm		=> '<gettext domain="distrib">ARM</gettext>',
	arm64		=> '<gettext domain="distrib">64-bit ARM (AArch64)</gettext>',
	armel		=> '<gettext domain="distrib">EABI ARM (armel)</gettext>',
	armhf		=> '<gettext domain="distrib">Hard Float ABI ARM (armhf)</gettext>',
	hppa		=> '<gettext domain="distrib">HP PA-RISC</gettext>',
	'hurd-i386'	=> '<gettext domain="distrib">Hurd 32-bit PC (i386)</gettext>',
	'hurd-amd64'	=> '<gettext domain="distrib">Hurd 64-bit PC (amd64)</gettext>',
	i386		=> '<gettext domain="distrib">32-bit PC (i386)</gettext>',
	ia64		=> '<gettext domain="distrib">Intel Itanium IA-64</gettext>',
	'kfreebsd-i386'	=> '<gettext domain="distrib">kFreeBSD 32-bit PC (i386)</gettext>',
	'kfreebsd-amd64'=> '<gettext domain="distrib">kFreeBSD 64-bit PC (amd64)</gettext>',
	loong64		=> '<gettext domain="distrib">64-bit LoongArch</gettext>',
	m68k		=> '<gettext domain="distrib">Motorola 680x0</gettext>',
	mips		=> '<gettext domain="distrib">MIPS (big endian)</gettext>',
	mips64el        => '<gettext domain="distrib">64-bit MIPS (little endian)</gettext>',
	mipsel		=> '<gettext domain="distrib">MIPS (little endian)</gettext>',
	powerpc		=> '<gettext domain="distrib">PowerPC</gettext>',
	ppc64el		=> '<gettext domain="distrib">POWER Processors</gettext>',
	riscv64		=> '<gettext domain="distrib">RISC-V 64-bit little endian (riscv64)</gettext>',
	s390		=> '<gettext domain="distrib">IBM S/390</gettext>',
	s390x		=> '<gettext domain="distrib">IBM System z</gettext>',
	sparc		=> '<gettext domain="distrib">SPARC</gettext>',
);

<bind-gettext-domain domain="doc" />

# list of install manual output formats
%formats = (
	html => '<gettext domain="doc">HTML</gettext>',
	pdf  => '<gettext domain="doc">PDF</gettext>',
	txt  => '<gettext domain="doc">plain text</gettext>',
);

</perl>
